boost-compatibility ff8b56dd5cce61d8f5ee06555d474ddea56be455
boost-config 4e68ac389780e9d308f59b8b3e5a761372d4861f
boost-preprocessor f757aa549bd0ceea1c921034535a6c0f4370b8c5
boost-vcpkg-helpers 80497f5cb284902827337afddfd8bd2c81f3ed9b
cmake 3.20.1
features core
portfile.cmake 4136f2c7eb65649677ad6798c60e2708d1517032
ports.cmake c969892a7210e71589dca21c1563c85b195a04bf
post_build_checks 2
powershell 7.1.3
triplet x86-windows
triplet_abi 4c64db251cbf53c76a606595b52416ec991ab5bb-a1c0eabb0c5177b6a8fb97a58ae398880c47b352-d8c1982fc772c9b47c816273e96145953dc4d7ea
vcpkg.json 67c3880910285dd4ad3ccd59f27cc373a872e00f
vcpkg_from_git 99e83c6ffac2dd07afaf73d795988ca5dec2dc8b
vcpkg_from_github a9dd1453b8873c9702731c6c36e79fb0ab6ae486
