boost-assert f0164d81d34d5445011c42ba83338e0a994480de
boost-config 20cb5b4d1e7456b3d2a769884917011c84bf3510
boost-context 7853ca678afec4a54251e9bc8598186a3766f623
boost-detail 6f4d9b93ca309167fb6dc5f70a1f8ffd5da2442f
boost-vcpkg-helpers 2d54b6d10f1dc434d4c1ffdf6ffecb250df51316
cmake 3.20.2
features core
portfile.cmake b5ff1ae88f9c2b976488449ddd517752885f1d36
ports.cmake bd8d6584852d3c42c455b6794fc31eb6a4f0914a
post_build_checks 2
powershell 7.1.3
triplet x86-windows
triplet_abi 4c64db251cbf53c76a606595b52416ec991ab5bb-a1c0eabb0c5177b6a8fb97a58ae398880c47b352-d8c1982fc772c9b47c816273e96145953dc4d7ea
vcpkg.json f3583e7e04725369b90bf4b02049590c05d41e81
vcpkg_from_git 99e83c6ffac2dd07afaf73d795988ca5dec2dc8b
vcpkg_from_github a9dd1453b8873c9702731c6c36e79fb0ab6ae486
