boost-array 0fe5755ba497a0825fc052599ad9ba06200f56cc
boost-assert f0164d81d34d5445011c42ba83338e0a994480de
boost-bind 6d3253ed173f6db9c8944b13404a4e6d8b193730
boost-chrono baaff62ca8526b57b579c69e1c6909d6ae991a92
boost-compatibility b8c066dd12592d501582c3fa90d40696203b78d9
boost-config 20cb5b4d1e7456b3d2a769884917011c84bf3510
boost-coroutine 1c2c2c81a2234d4e578526f9ce49211c041da112
boost-date-time c479cd8d29826a326a5c1471389b16d117e7e002
boost-detail 6f4d9b93ca309167fb6dc5f70a1f8ffd5da2442f
boost-function 5af81eef03a975beb952a35ec09a061f839fafaa
boost-integer 6b8d4d12a8277a3c683643397afa14a29e2de1cd
boost-regex f4135aab1d34ad04fb708804614a4dd894b6cd6f
boost-smart-ptr 383b9a35fd0bfb02b53c2e9418ab8d65a1425fcf
boost-system 45258459330650d51073e376b4ee63c7daaf486a
boost-throw-exception 4d2d23bdb9e2ecb9531ea2c0c487af666626d37f
boost-type-traits 66409d9ca8e2e00de09f6d288d854ff5e8e31d58
boost-utility b6ff9991bc3dcf6748fc4136c4ad1c6d993d27d4
boost-vcpkg-helpers 2d54b6d10f1dc434d4c1ffdf6ffecb250df51316
cmake 3.20.2
features core
inline_dummy_return.patch 3b00283109f378daa3646b0908e2cfc12784fbe7
openssl 05fcb6b0b5063015cccf0ce7758ac25b82416265
portfile.cmake 7d401775fc471ef107906ee3b2ab7ad1d4707b8b
ports.cmake bd8d6584852d3c42c455b6794fc31eb6a4f0914a
post_build_checks 2
powershell 7.1.3
triplet x86-windows
triplet_abi 4c64db251cbf53c76a606595b52416ec991ab5bb-a1c0eabb0c5177b6a8fb97a58ae398880c47b352-d8c1982fc772c9b47c816273e96145953dc4d7ea
vcpkg.json 22434bd4005912309cf872de05d30177ee066c32
vcpkg_from_git 99e83c6ffac2dd07afaf73d795988ca5dec2dc8b
vcpkg_from_github a9dd1453b8873c9702731c6c36e79fb0ab6ae486
windows_alloca_header.patch efaa91973cd54d983e9e9edaa4d72fb68c58a5b0
