boost-algorithm 5680344b1ad7fbad90d155e7709a6ab720259642
boost-any e2862ea3c01c5bf553b2482f07073c831d250c78
boost-array 0fe5755ba497a0825fc052599ad9ba06200f56cc
boost-assert f0164d81d34d5445011c42ba83338e0a994480de
boost-bimap 9a5d8ba626c1a9b3415bd1f859f1eb8b1002d7b2
boost-bind 6d3253ed173f6db9c8944b13404a4e6d8b193730
boost-build a27114355e362c0276e0289688573226dbdbf1ed
boost-compatibility b8c066dd12592d501582c3fa90d40696203b78d9
boost-concept-check 213ae8b7fab2ebc085daa4c30686a4b1ef9399ba
boost-config 20cb5b4d1e7456b3d2a769884917011c84bf3510
boost-container-hash 655e70dba9df526383dc31c2807e4ccb934102a4
boost-conversion 6cb6cdc352697482cf2133ce869ba09c6b2c51b6
boost-core 5b621ead1d346332e9fb85a7c3d9a427a42dd19e
boost-detail 6f4d9b93ca309167fb6dc5f70a1f8ffd5da2442f
boost-foreach 7efb5250172cf136f8f1dd8e5ca352d537501e7c
boost-function 5af81eef03a975beb952a35ec09a061f839fafaa
boost-integer 6b8d4d12a8277a3c683643397afa14a29e2de1cd
boost-iterator fddea7c600d3de2090f1e176e21b6a1ee8cd1511
boost-lexical-cast b743cde779f3ba2127edf6a0e28f8f2d975e1cba
boost-math e978ea52f81dfea0c6b574efd1edf8a2705d3373
boost-modular-build-helper f14e029d4056c0e90bfeb8c292ca361fb6bde022
boost-move deec5e9edf50367896d76640d76a0cad2b46daa0
boost-mpl 65735cad3dbedf8253842731ec931d149995df8c
boost-multi-index cebe4152688bae4062410420e45e7dc1f6797764
boost-optional 05f0fbf3d961680d3beeceaae32af5968d3a62f0
boost-parameter 1629a208d7811508f1161a38dbe8219c95f70e4f
boost-preprocessor 37b102307036e11c67a31b1e33f4251cf64c80d2
boost-property-map b9068a04c01cfc566c0b83abe08b33c50f7f9522
boost-property-tree 1e460c1ec1ec3844e3718c738fee5a7b2f2d3c7d
boost-random 283ddbb7dcac1e895c5bbf8470ba6298560b00ff
boost-range e92397b37298c9ee70634b184df677d61609ce6d
boost-regex f4135aab1d34ad04fb708804614a4dd894b6cd6f
boost-serialization 32c1568f02c7ac9da8f34c29823c0914c3e6fee8
boost-smart-ptr 383b9a35fd0bfb02b53c2e9418ab8d65a1425fcf
boost-spirit 9dbc119f2c3ebf80d7e15cb394186c0fc9cb78b6
boost-static-assert 9e3b351365925913118fbf9d59c082033cd3392b
boost-test 78ef688d03d451a02f8a60dad149cc62a8693849
boost-throw-exception 4d2d23bdb9e2ecb9531ea2c0c487af666626d37f
boost-tti 4cf3db68503dd169fe8431e41097b3516339aece
boost-tuple 3643db0af4570873eb3a192829ff1b289069a048
boost-type-traits 66409d9ca8e2e00de09f6d288d854ff5e8e31d58
boost-typeof 8e1eccb5d142b960a626a2092d60285a3b7575fb
boost-unordered 1e71c4c6d99184aa4c37929b287718a9c18d8bcb
boost-utility b6ff9991bc3dcf6748fc4136c4ad1c6d993d27d4
boost-vcpkg-helpers 2d54b6d10f1dc434d4c1ffdf6ffecb250df51316
boost-xpressive 9d8cd1c564b1d2180e5325d93e88aaac262a4f85
cmake 3.20.2
features core
portfile.cmake 0e10835d7d81dff9cfc6ada21c8bc22361bfc174
ports.cmake bd8d6584852d3c42c455b6794fc31eb6a4f0914a
post_build_checks 2
powershell 7.1.3
triplet x86-windows
triplet_abi 4c64db251cbf53c76a606595b52416ec991ab5bb-a1c0eabb0c5177b6a8fb97a58ae398880c47b352-d8c1982fc772c9b47c816273e96145953dc4d7ea
vcpkg.json 2c40fc7d14cb8ee7bbf28745566fbf5b8495f263
vcpkg_from_git 99e83c6ffac2dd07afaf73d795988ca5dec2dc8b
vcpkg_from_github a9dd1453b8873c9702731c6c36e79fb0ab6ae486
