boost-config 20cb5b4d1e7456b3d2a769884917011c84bf3510
boost-container-hash 655e70dba9df526383dc31c2807e4ccb934102a4
boost-core 5b621ead1d346332e9fb85a7c3d9a427a42dd19e
boost-detail 6f4d9b93ca309167fb6dc5f70a1f8ffd5da2442f
boost-integer 6b8d4d12a8277a3c683643397afa14a29e2de1cd
boost-io eddded87e05b015bcb25ea9dc22b0c2d9e4c951f
boost-preprocessor 37b102307036e11c67a31b1e33f4251cf64c80d2
boost-throw-exception 4d2d23bdb9e2ecb9531ea2c0c487af666626d37f
boost-type-traits 66409d9ca8e2e00de09f6d288d854ff5e8e31d58
boost-vcpkg-helpers 2d54b6d10f1dc434d4c1ffdf6ffecb250df51316
cmake 3.20.2
features core
portfile.cmake 39b0f32db25bbe450fed9ef4768ff05591cc5c5d
ports.cmake bd8d6584852d3c42c455b6794fc31eb6a4f0914a
post_build_checks 2
powershell 7.1.3
triplet x86-windows
triplet_abi 4c64db251cbf53c76a606595b52416ec991ab5bb-a1c0eabb0c5177b6a8fb97a58ae398880c47b352-d8c1982fc772c9b47c816273e96145953dc4d7ea
vcpkg.json 7da83bc2ec95dc3dbc0f6d5dee2b4f078f85ad8e
vcpkg_from_git 99e83c6ffac2dd07afaf73d795988ca5dec2dc8b
vcpkg_from_github a9dd1453b8873c9702731c6c36e79fb0ab6ae486
