boost-assert f0164d81d34d5445011c42ba83338e0a994480de
boost-build a27114355e362c0276e0289688573226dbdbf1ed
boost-config 20cb5b4d1e7456b3d2a769884917011c84bf3510
boost-context 7853ca678afec4a54251e9bc8598186a3766f623
boost-core 5b621ead1d346332e9fb85a7c3d9a427a42dd19e
boost-detail 6f4d9b93ca309167fb6dc5f70a1f8ffd5da2442f
boost-exception cb9aa7bbc649ac4c71505f51b211f69d2bd12580
boost-integer 6b8d4d12a8277a3c683643397afa14a29e2de1cd
boost-modular-build-helper f14e029d4056c0e90bfeb8c292ca361fb6bde022
boost-move deec5e9edf50367896d76640d76a0cad2b46daa0
boost-system 45258459330650d51073e376b4ee63c7daaf486a
boost-thread ecb2b763e171dc796ccd00dbe26b9bc41dad7fa2
boost-throw-exception 4d2d23bdb9e2ecb9531ea2c0c487af666626d37f
boost-type-traits 66409d9ca8e2e00de09f6d288d854ff5e8e31d58
boost-utility b6ff9991bc3dcf6748fc4136c4ad1c6d993d27d4
boost-vcpkg-helpers 2d54b6d10f1dc434d4c1ffdf6ffecb250df51316
cmake 3.20.2
features core
portfile.cmake a49841f8a48ea4d74edbc7114b6d5ce9cbb71895
ports.cmake bd8d6584852d3c42c455b6794fc31eb6a4f0914a
post_build_checks 2
powershell 7.1.3
triplet x86-windows
triplet_abi 4c64db251cbf53c76a606595b52416ec991ab5bb-a1c0eabb0c5177b6a8fb97a58ae398880c47b352-d8c1982fc772c9b47c816273e96145953dc4d7ea
vcpkg.json 7e79e696b7af9a6262b7037a7e9795e875105865
vcpkg_from_git 99e83c6ffac2dd07afaf73d795988ca5dec2dc8b
vcpkg_from_github a9dd1453b8873c9702731c6c36e79fb0ab6ae486
