b2-options.cmake.in ab2752dd802fb06bf55730bf42d443bdff942a7a
boost-assert f0164d81d34d5445011c42ba83338e0a994480de
boost-build a27114355e362c0276e0289688573226dbdbf1ed
boost-config 20cb5b4d1e7456b3d2a769884917011c84bf3510
boost-core 5b621ead1d346332e9fb85a7c3d9a427a42dd19e
boost-detail 6f4d9b93ca309167fb6dc5f70a1f8ffd5da2442f
boost-integer 6b8d4d12a8277a3c683643397afa14a29e2de1cd
boost-modular-build-helper f14e029d4056c0e90bfeb8c292ca361fb6bde022
boost-pool 405057bdb1761b6cce9cb5bde9fee8f4ad651580
boost-predef 57c0543418892291c31f07874227c9a533abc3c7
boost-smart-ptr 383b9a35fd0bfb02b53c2e9418ab8d65a1425fcf
boost-thread ecb2b763e171dc796ccd00dbe26b9bc41dad7fa2
boost-vcpkg-helpers 2d54b6d10f1dc434d4c1ffdf6ffecb250df51316
cmake 3.20.2
features core
fix_exports_for_32bit_GNU_asm_for_windows.patch 977d3b6a16be60e0489a2d310eaedb95ecab175a
portfile.cmake df8fe3a65ee7e5d49a54fee2f4708cee82e73037
ports.cmake bd8d6584852d3c42c455b6794fc31eb6a4f0914a
post_build_checks 2
powershell 7.1.3
triplet x86-windows
triplet_abi 4c64db251cbf53c76a606595b52416ec991ab5bb-a1c0eabb0c5177b6a8fb97a58ae398880c47b352-d8c1982fc772c9b47c816273e96145953dc4d7ea
vcpkg.json fcda7a27a79b0b04b28ed596bc656935112649d7
vcpkg_from_git 99e83c6ffac2dd07afaf73d795988ca5dec2dc8b
vcpkg_from_github a9dd1453b8873c9702731c6c36e79fb0ab6ae486
