boost-assert f0164d81d34d5445011c42ba83338e0a994480de
boost-bind 6d3253ed173f6db9c8944b13404a4e6d8b193730
boost-config 20cb5b4d1e7456b3d2a769884917011c84bf3510
boost-core 5b621ead1d346332e9fb85a7c3d9a427a42dd19e
boost-detail 6f4d9b93ca309167fb6dc5f70a1f8ffd5da2442f
boost-function 5af81eef03a975beb952a35ec09a061f839fafaa
boost-fusion 9882310eed0ff85565b35a755e3ef80f2dbd2758
boost-mpl 65735cad3dbedf8253842731ec931d149995df8c
boost-predef 57c0543418892291c31f07874227c9a533abc3c7
boost-preprocessor 37b102307036e11c67a31b1e33f4251cf64c80d2
boost-proto bf4ea4cd45a1bd93440b08e80eebcd2c13bf2bae
boost-range e92397b37298c9ee70634b184df677d61609ce6d
boost-smart-ptr 383b9a35fd0bfb02b53c2e9418ab8d65a1425fcf
boost-type-traits 66409d9ca8e2e00de09f6d288d854ff5e8e31d58
boost-utility b6ff9991bc3dcf6748fc4136c4ad1c6d993d27d4
boost-vcpkg-helpers 2d54b6d10f1dc434d4c1ffdf6ffecb250df51316
cmake 3.20.2
features core
portfile.cmake c5f872dabffc130274b9f54c1fc26fc31edf4ae0
ports.cmake bd8d6584852d3c42c455b6794fc31eb6a4f0914a
post_build_checks 2
powershell 7.1.3
triplet x86-windows
triplet_abi 4c64db251cbf53c76a606595b52416ec991ab5bb-a1c0eabb0c5177b6a8fb97a58ae398880c47b352-d8c1982fc772c9b47c816273e96145953dc4d7ea
vcpkg.json da728b3be82e3eee3e05c8164b9fc039ba5ba36a
vcpkg_from_git 99e83c6ffac2dd07afaf73d795988ca5dec2dc8b
vcpkg_from_github a9dd1453b8873c9702731c6c36e79fb0ab6ae486
