boost-assert f0164d81d34d5445011c42ba83338e0a994480de
boost-compatibility b8c066dd12592d501582c3fa90d40696203b78d9
boost-config 20cb5b4d1e7456b3d2a769884917011c84bf3510
boost-container-hash 655e70dba9df526383dc31c2807e4ccb934102a4
boost-conversion 6cb6cdc352697482cf2133ce869ba09c6b2c51b6
boost-core 5b621ead1d346332e9fb85a7c3d9a427a42dd19e
boost-integer 6b8d4d12a8277a3c683643397afa14a29e2de1cd
boost-io eddded87e05b015bcb25ea9dc22b0c2d9e4c951f
boost-move deec5e9edf50367896d76640d76a0cad2b46daa0
boost-numeric-conversion 813b598307a8e5631bb70040e3e4551885530195
boost-predef 57c0543418892291c31f07874227c9a533abc3c7
boost-random 283ddbb7dcac1e895c5bbf8470ba6298560b00ff
boost-serialization 32c1568f02c7ac9da8f34c29823c0914c3e6fee8
boost-static-assert 9e3b351365925913118fbf9d59c082033cd3392b
boost-throw-exception 4d2d23bdb9e2ecb9531ea2c0c487af666626d37f
boost-tti 4cf3db68503dd169fe8431e41097b3516339aece
boost-type-traits 66409d9ca8e2e00de09f6d288d854ff5e8e31d58
boost-vcpkg-helpers 2d54b6d10f1dc434d4c1ffdf6ffecb250df51316
boost-winapi 91c0d52f9bf61898b9e6aaaebd7730bf4d8585bb
cmake 3.20.2
features core
portfile.cmake efe805b8d80c25b67a8e24704fc5d993b6bff4d5
ports.cmake bd8d6584852d3c42c455b6794fc31eb6a4f0914a
post_build_checks 2
powershell 7.1.3
triplet x86-windows
triplet_abi 4c64db251cbf53c76a606595b52416ec991ab5bb-a1c0eabb0c5177b6a8fb97a58ae398880c47b352-d8c1982fc772c9b47c816273e96145953dc4d7ea
vcpkg.json a10905af5d99a04c623eff2615ff55073aacfe49
vcpkg_from_git 99e83c6ffac2dd07afaf73d795988ca5dec2dc8b
vcpkg_from_github a9dd1453b8873c9702731c6c36e79fb0ab6ae486
