boost-array 0fe5755ba497a0825fc052599ad9ba06200f56cc
boost-assert f0164d81d34d5445011c42ba83338e0a994480de
boost-bind 6d3253ed173f6db9c8944b13404a4e6d8b193730
boost-concept-check 213ae8b7fab2ebc085daa4c30686a4b1ef9399ba
boost-core 5b621ead1d346332e9fb85a7c3d9a427a42dd19e
boost-integer 6b8d4d12a8277a3c683643397afa14a29e2de1cd
boost-intrusive 297d3abf34f43b3118f02fde652b471e292bc6f4
boost-iterator fddea7c600d3de2090f1e176e21b6a1ee8cd1511
boost-parameter 1629a208d7811508f1161a38dbe8219c95f70e4f
boost-static-assert 9e3b351365925913118fbf9d59c082033cd3392b
boost-throw-exception 4d2d23bdb9e2ecb9531ea2c0c487af666626d37f
boost-type-traits 66409d9ca8e2e00de09f6d288d854ff5e8e31d58
boost-vcpkg-helpers 2d54b6d10f1dc434d4c1ffdf6ffecb250df51316
cmake 3.20.2
features core
portfile.cmake 211890b5830af8a805d71011cb001a0461f3279a
ports.cmake bd8d6584852d3c42c455b6794fc31eb6a4f0914a
post_build_checks 2
powershell 7.1.3
triplet x86-windows
triplet_abi 4c64db251cbf53c76a606595b52416ec991ab5bb-a1c0eabb0c5177b6a8fb97a58ae398880c47b352-d8c1982fc772c9b47c816273e96145953dc4d7ea
vcpkg.json f9077ca8b0d20622cf49eaeda5d299b5b3fcc265
vcpkg_from_git 99e83c6ffac2dd07afaf73d795988ca5dec2dc8b
vcpkg_from_github a9dd1453b8873c9702731c6c36e79fb0ab6ae486
