boost-bind 6d3253ed173f6db9c8944b13404a4e6d8b193730
boost-config 20cb5b4d1e7456b3d2a769884917011c84bf3510
boost-detail 6f4d9b93ca309167fb6dc5f70a1f8ffd5da2442f
boost-mpl 65735cad3dbedf8253842731ec931d149995df8c
boost-type-traits 66409d9ca8e2e00de09f6d288d854ff5e8e31d58
boost-utility b6ff9991bc3dcf6748fc4136c4ad1c6d993d27d4
boost-vcpkg-helpers 2d54b6d10f1dc434d4c1ffdf6ffecb250df51316
cmake 3.20.2
features core
portfile.cmake 0299fba004851a19b31ca7641b6112029297d729
ports.cmake bd8d6584852d3c42c455b6794fc31eb6a4f0914a
post_build_checks 2
powershell 7.1.3
triplet x86-windows
triplet_abi 4c64db251cbf53c76a606595b52416ec991ab5bb-a1c0eabb0c5177b6a8fb97a58ae398880c47b352-d8c1982fc772c9b47c816273e96145953dc4d7ea
vcpkg.json 3d9fee663c43c465503beb52a1d968822767e4d8
vcpkg_from_git 99e83c6ffac2dd07afaf73d795988ca5dec2dc8b
vcpkg_from_github a9dd1453b8873c9702731c6c36e79fb0ab6ae486
