boost-mpl 65735cad3dbedf8253842731ec931d149995df8c
boost-parameter 1629a208d7811508f1161a38dbe8219c95f70e4f
boost-preprocessor 37b102307036e11c67a31b1e33f4251cf64c80d2
boost-python d2e29cd535a61da7313ad7d777c64263312eca58
boost-vcpkg-helpers 2d54b6d10f1dc434d4c1ffdf6ffecb250df51316
cmake 3.20.2
features core
portfile.cmake d37c193e58a8b0e8b9c47d6344d10aee1650d94a
ports.cmake bd8d6584852d3c42c455b6794fc31eb6a4f0914a
post_build_checks 2
powershell 7.1.3
triplet x86-windows
triplet_abi 4c64db251cbf53c76a606595b52416ec991ab5bb-a1c0eabb0c5177b6a8fb97a58ae398880c47b352-d8c1982fc772c9b47c816273e96145953dc4d7ea
vcpkg.json d20d48e939cc207bb99935de966cfaeaa89c29a9
vcpkg_from_git 99e83c6ffac2dd07afaf73d795988ca5dec2dc8b
vcpkg_from_github a9dd1453b8873c9702731c6c36e79fb0ab6ae486
