CONTROL 13eaa1a9c0f7f784241501cf6b8d79f3030dc781
boost-optional 77fda1afe85e6ad94fecea66e5d1184558488d73
boost-smart-ptr bdbece4ebbbe7afacdc631f7d97b8157ade9dc71
boost-utility ff0ce8caa797f84be605cfa549731aded6d4b5eb
cmake 3.20.1
disable-c2338-mongo-cxx-driver.patch 42db91699e5ffc693d9ed2a4f1140b656de9c621
disable_test_and_example.patch 540a53d8dd758d48dd90e90ee5b292bc61f6b1ff
features core
fix-android.patch 3938e3ed9de957544259747dde70f047eb6e3dc1
fix-dependency-libbson.patch 34688cf68386f4ccd005540fcc8cc29aea3777c6
fix-dependency-mongocdriver.patch fa0a963b733c448a20d4fa268e344cde5dce3cd2
fix-uwp.patch d70dadf7dd30b6dda2159d4e1f960f5063eedaf6
github-654.patch 9a6a4bc6fa5df2b82afd87ce065156aed0c18a94
libbson 11e29e9c06cb3aef09538ff7238ea0db202ee884
mongo-c-driver b33f274c03d8735f88d230281fcf8e81e289ccc3
portfile.cmake df6f3fde12d1ade0096339e9ac7ed28bc08e2312
ports.cmake c969892a7210e71589dca21c1563c85b195a04bf
post_build_checks 2
powershell 7.1.3
triplet x86-windows
triplet_abi 4c64db251cbf53c76a606595b52416ec991ab5bb-a1c0eabb0c5177b6a8fb97a58ae398880c47b352-d8c1982fc772c9b47c816273e96145953dc4d7ea
vcpkg_configure_cmake 180d1983420a821c2c67715327ce3412f729df0f
vcpkg_copy_pdbs 0cb0d2876f7c892295cc0858271888bee1ebf0d2
vcpkg_from_git 99e83c6ffac2dd07afaf73d795988ca5dec2dc8b
vcpkg_from_github a9dd1453b8873c9702731c6c36e79fb0ab6ae486
vcpkg_install_cmake 94b6323d05cea68ec09f6bdce7c96f15323114e1
