boost-align 7a69c8e044fb81c8573835d3b5e480ee6a56195a
boost-assert f0164d81d34d5445011c42ba83338e0a994480de
boost-config 20cb5b4d1e7456b3d2a769884917011c84bf3510
boost-container b71bf5e18c4917e3dca60d400288e866df8ed69d
boost-exception cb9aa7bbc649ac4c71505f51b211f69d2bd12580
boost-system 45258459330650d51073e376b4ee63c7daaf486a
boost-throw-exception 4d2d23bdb9e2ecb9531ea2c0c487af666626d37f
boost-utility b6ff9991bc3dcf6748fc4136c4ad1c6d993d27d4
boost-vcpkg-helpers 2d54b6d10f1dc434d4c1ffdf6ffecb250df51316
cmake 3.20.2
features core
portfile.cmake e45eda27bed1a166a91053a36ed4dffdeb84470a
ports.cmake bd8d6584852d3c42c455b6794fc31eb6a4f0914a
post_build_checks 2
powershell 7.1.3
triplet x86-windows
triplet_abi 4c64db251cbf53c76a606595b52416ec991ab5bb-a1c0eabb0c5177b6a8fb97a58ae398880c47b352-d8c1982fc772c9b47c816273e96145953dc4d7ea
vcpkg.json 660be9a54527b5c807ff7aaff4798c50cc72b228
vcpkg_from_git 99e83c6ffac2dd07afaf73d795988ca5dec2dc8b
vcpkg_from_github a9dd1453b8873c9702731c6c36e79fb0ab6ae486
