boost-assert f0164d81d34d5445011c42ba83338e0a994480de
boost-compatibility b8c066dd12592d501582c3fa90d40696203b78d9
boost-concept-check 213ae8b7fab2ebc085daa4c30686a4b1ef9399ba
boost-config 20cb5b4d1e7456b3d2a769884917011c84bf3510
boost-core 5b621ead1d346332e9fb85a7c3d9a427a42dd19e
boost-move deec5e9edf50367896d76640d76a0cad2b46daa0
boost-static-assert 9e3b351365925913118fbf9d59c082033cd3392b
boost-throw-exception 4d2d23bdb9e2ecb9531ea2c0c487af666626d37f
boost-type-traits 66409d9ca8e2e00de09f6d288d854ff5e8e31d58
boost-vcpkg-helpers 2d54b6d10f1dc434d4c1ffdf6ffecb250df51316
cmake 3.20.2
features core
portfile.cmake bb81eedcf6eb73b9aa1fa54310e9a36fe6ee57f7
ports.cmake bd8d6584852d3c42c455b6794fc31eb6a4f0914a
post_build_checks 2
powershell 7.1.3
triplet x86-windows
triplet_abi 4c64db251cbf53c76a606595b52416ec991ab5bb-a1c0eabb0c5177b6a8fb97a58ae398880c47b352-d8c1982fc772c9b47c816273e96145953dc4d7ea
vcpkg.json c050e60425721b562e89b14d972993cffd3f6748
vcpkg_from_git 99e83c6ffac2dd07afaf73d795988ca5dec2dc8b
vcpkg_from_github a9dd1453b8873c9702731c6c36e79fb0ab6ae486
