boost-assert f0164d81d34d5445011c42ba83338e0a994480de
boost-build a27114355e362c0276e0289688573226dbdbf1ed
boost-config 20cb5b4d1e7456b3d2a769884917011c84bf3510
boost-container-hash 655e70dba9df526383dc31c2807e4ccb934102a4
boost-core 5b621ead1d346332e9fb85a7c3d9a427a42dd19e
boost-integer 6b8d4d12a8277a3c683643397afa14a29e2de1cd
boost-intrusive 297d3abf34f43b3118f02fde652b471e292bc6f4
boost-modular-build-helper f14e029d4056c0e90bfeb8c292ca361fb6bde022
boost-move deec5e9edf50367896d76640d76a0cad2b46daa0
boost-static-assert 9e3b351365925913118fbf9d59c082033cd3392b
boost-type-traits 66409d9ca8e2e00de09f6d288d854ff5e8e31d58
boost-vcpkg-helpers 2d54b6d10f1dc434d4c1ffdf6ffecb250df51316
cmake 3.20.2
features core
portfile.cmake c2a7cd47ecf2000bf7ac92b9e29619dc27ecc57e
ports.cmake bd8d6584852d3c42c455b6794fc31eb6a4f0914a
post_build_checks 2
powershell 7.1.3
triplet x86-windows
triplet_abi 4c64db251cbf53c76a606595b52416ec991ab5bb-a1c0eabb0c5177b6a8fb97a58ae398880c47b352-d8c1982fc772c9b47c816273e96145953dc4d7ea
vcpkg.json 818e370b129c33838ddee63ca7fa6f9caa8cb28f
vcpkg_from_git 99e83c6ffac2dd07afaf73d795988ca5dec2dc8b
vcpkg_from_github a9dd1453b8873c9702731c6c36e79fb0ab6ae486
