0001-static-library.patch 2327732f865a613ae6aa11b2b6926a1ee24c38ec
0002-use-vcpkg-zlib.patch fb81e938ec4afd69f4297ea9f1c24a4702d6b950
0003-devendor-external-dependencies.patch 50d4910b50efd1577aa00325bdb7ed9c23138099
0004-dont-copy-vcruntime.patch c34123caa0fad7638bc07432a8fb83b97a30a000
0005-only-build-required-projects.patch 09a7fbeddc508fd1da7e74962cd0d76c0428014a
0006-fix-duplicate-symbols.patch 4126c3f568c1cfc29e02b105d6d776ba6a1fa0a1
0007-restore-support-for-windows-7.patch 9b27669152c81b5a63eda8d3e993274a5ee6a1b4
bzip2 d2cc08d41fdca03414bde6fd84a3b61784b7dba0
cmake 3.20.2
expat 42981a63d482eb43569d374d4c331b61599e5b3a
features core
libffi cb3a387c15a96144931aa6e0d941fc6689b9857f
liblzma d209d6d666f44a7af639fd02ffe1605156fc7005
openssl 05fcb6b0b5063015cccf0ce7758ac25b82416265
openssl.props.in 89e82b4dfefd4a52447184bab89e945e6a0ccc3a
portfile.cmake 4c7377182b0bb8887d6cabcc465f91f9064d162d
ports.cmake bd8d6584852d3c42c455b6794fc31eb6a4f0914a
post_build_checks 2
powershell 7.1.3
python_vcpkg.props.in 9b5ce8a5de160692071cbf6b44eea65b0b54b07c
sqlite3 e4a0bd617f49e2f3f7e703d75ac4a4956303008d
triplet x86-windows
triplet_abi 4c64db251cbf53c76a606595b52416ec991ab5bb-a1c0eabb0c5177b6a8fb97a58ae398880c47b352-d8c1982fc772c9b47c816273e96145953dc4d7ea
usage 8a6e0e3c28040acfb5404da0c253c5c9a6f7dd74
vcpkg-cmake-wrapper.cmake 6e4e0ee475ec32a6ba781b5f04611f4d863218e2
vcpkg.json 146c6a23d5eb8c66c69eb37b856217ac327a37de
vcpkg_add_to_path 5b61305ce1f097c857939b0309b008d283fa6658
vcpkg_clean_msbuild 6385c359eb42039c03cbc8a3de5eefe38cb7ad63
vcpkg_configure_make 875fdab2c9f11341a71c4671b118837a4e2eaf96
vcpkg_copy_tool_dependencies 1af6f73afda6fe9536d3e6c593cff97ef3638a88
vcpkg_copy_tools 7b4ffeb609a71afb0f1e9653c70ba344c1335d6c
vcpkg_execute_required_process d2520c229d9c3a89d8f512b2cdf6fea381264136
vcpkg_from_git 99e83c6ffac2dd07afaf73d795988ca5dec2dc8b
vcpkg_from_github a9dd1453b8873c9702731c6c36e79fb0ab6ae486
vcpkg_install_make 6b7345be4d3363747f6d75839e87d441025f04d5
vcpkg_install_msbuild 67a7a68dbdc6beadd12c0db5e0863a958f2e1202
zlib b24442d3596106c97034099167291ae73f7328b0
