boost-assert f0164d81d34d5445011c42ba83338e0a994480de
boost-config 20cb5b4d1e7456b3d2a769884917011c84bf3510
boost-core 5b621ead1d346332e9fb85a7c3d9a427a42dd19e
boost-detail 6f4d9b93ca309167fb6dc5f70a1f8ffd5da2442f
boost-functional 041cbb6e6668e88ef4303df89ff21bc06d7a2114
boost-interprocess 77760ee4d4c5f17712e7c84bfc823e93118efa9b
boost-mpl 65735cad3dbedf8253842731ec931d149995df8c
boost-multi-index cebe4152688bae4062410420e45e7dc1f6797764
boost-parameter 1629a208d7811508f1161a38dbe8219c95f70e4f
boost-preprocessor 37b102307036e11c67a31b1e33f4251cf64c80d2
boost-serialization 32c1568f02c7ac9da8f34c29823c0914c3e6fee8
boost-throw-exception 4d2d23bdb9e2ecb9531ea2c0c487af666626d37f
boost-type-traits 66409d9ca8e2e00de09f6d288d854ff5e8e31d58
boost-utility b6ff9991bc3dcf6748fc4136c4ad1c6d993d27d4
boost-vcpkg-helpers 2d54b6d10f1dc434d4c1ffdf6ffecb250df51316
cmake 3.20.2
features core
portfile.cmake 893bab2b9605f9845c8b5fcbb6aaa187d7ba2df0
ports.cmake bd8d6584852d3c42c455b6794fc31eb6a4f0914a
post_build_checks 2
powershell 7.1.3
triplet x86-windows
triplet_abi 4c64db251cbf53c76a606595b52416ec991ab5bb-a1c0eabb0c5177b6a8fb97a58ae398880c47b352-d8c1982fc772c9b47c816273e96145953dc4d7ea
vcpkg.json 486aff2447eafc8e6408a166767f3f32f72c4bd5
vcpkg_from_git 99e83c6ffac2dd07afaf73d795988ca5dec2dc8b
vcpkg_from_github a9dd1453b8873c9702731c6c36e79fb0ab6ae486
