boost-array 0fe5755ba497a0825fc052599ad9ba06200f56cc
boost-assert f0164d81d34d5445011c42ba83338e0a994480de
boost-compatibility b8c066dd12592d501582c3fa90d40696203b78d9
boost-config 20cb5b4d1e7456b3d2a769884917011c84bf3510
boost-core 5b621ead1d346332e9fb85a7c3d9a427a42dd19e
boost-detail 6f4d9b93ca309167fb6dc5f70a1f8ffd5da2442f
boost-endian 2f42077a2769be2c1d746c52c8e7baa4664a8c3b
boost-foreach 7efb5250172cf136f8f1dd8e5ca352d537501e7c
boost-function 5af81eef03a975beb952a35ec09a061f839fafaa
boost-function-types d785f503c0f0a312eeadf382fb8cb3359aa79155
boost-fusion 9882310eed0ff85565b35a755e3ef80f2dbd2758
boost-integer 6b8d4d12a8277a3c683643397afa14a29e2de1cd
boost-io eddded87e05b015bcb25ea9dc22b0c2d9e4c951f
boost-iterator fddea7c600d3de2090f1e176e21b6a1ee8cd1511
boost-math e978ea52f81dfea0c6b574efd1edf8a2705d3373
boost-move deec5e9edf50367896d76640d76a0cad2b46daa0
boost-mpl 65735cad3dbedf8253842731ec931d149995df8c
boost-optional 05f0fbf3d961680d3beeceaae32af5968d3a62f0
boost-phoenix c383c648f5d73c9fdc4a7ef87c414a0434e6cfd6
boost-pool 405057bdb1761b6cce9cb5bde9fee8f4ad651580
boost-preprocessor 37b102307036e11c67a31b1e33f4251cf64c80d2
boost-proto bf4ea4cd45a1bd93440b08e80eebcd2c13bf2bae
boost-range e92397b37298c9ee70634b184df677d61609ce6d
boost-regex f4135aab1d34ad04fb708804614a4dd894b6cd6f
boost-smart-ptr 383b9a35fd0bfb02b53c2e9418ab8d65a1425fcf
boost-static-assert 9e3b351365925913118fbf9d59c082033cd3392b
boost-thread ecb2b763e171dc796ccd00dbe26b9bc41dad7fa2
boost-throw-exception 4d2d23bdb9e2ecb9531ea2c0c487af666626d37f
boost-type-traits 66409d9ca8e2e00de09f6d288d854ff5e8e31d58
boost-typeof 8e1eccb5d142b960a626a2092d60285a3b7575fb
boost-unordered 1e71c4c6d99184aa4c37929b287718a9c18d8bcb
boost-utility b6ff9991bc3dcf6748fc4136c4ad1c6d993d27d4
boost-variant 64497a5017ddafbdef1fc7ce3d3f652e9e48bcd6
boost-vcpkg-helpers 2d54b6d10f1dc434d4c1ffdf6ffecb250df51316
cmake 3.20.2
features core
portfile.cmake bd5de9203a16f79bdf7adcabd906fa67911036ea
ports.cmake bd8d6584852d3c42c455b6794fc31eb6a4f0914a
post_build_checks 2
powershell 7.1.3
triplet x86-windows
triplet_abi 4c64db251cbf53c76a606595b52416ec991ab5bb-a1c0eabb0c5177b6a8fb97a58ae398880c47b352-d8c1982fc772c9b47c816273e96145953dc4d7ea
vcpkg.json 8f737f78c64ee95ddfd597db996011a6f17c5c5e
vcpkg_from_git 99e83c6ffac2dd07afaf73d795988ca5dec2dc8b
vcpkg_from_github a9dd1453b8873c9702731c6c36e79fb0ab6ae486
