boost-assert 766d1e50d76fa15029f0896e98a39c94179edf90
boost-config 4e68ac389780e9d308f59b8b3e5a761372d4861f
boost-core daa09d115e70677561076e79281fec7f704d5e15
boost-integer 975295b82f04c6406baeec0626d4715a659ae467
boost-move 84dee2a4c7a9a6eb189dba0ac6040ac638dd1eb9
boost-static-assert d053941176d254d233fbbd542340c3adc6b284e2
boost-throw-exception b8f4de155adad4f0cb0bfad05274126c1a1b2d42
boost-type-traits cea0c9f630695ba63fd59f965d3da18c61504b67
boost-vcpkg-helpers 80497f5cb284902827337afddfd8bd2c81f3ed9b
cmake 3.20.1
features core
portfile.cmake e9e4de2942ef353465d1bceb34e0ffdf389ed63b
ports.cmake c969892a7210e71589dca21c1563c85b195a04bf
post_build_checks 2
powershell 7.1.3
triplet x86-windows
triplet_abi 4c64db251cbf53c76a606595b52416ec991ab5bb-a1c0eabb0c5177b6a8fb97a58ae398880c47b352-d8c1982fc772c9b47c816273e96145953dc4d7ea
vcpkg.json 71a2ec8e0229c3567ed19111b0222980bea6cf92
vcpkg_from_git 99e83c6ffac2dd07afaf73d795988ca5dec2dc8b
vcpkg_from_github a9dd1453b8873c9702731c6c36e79fb0ab6ae486
