boost-assert f0164d81d34d5445011c42ba83338e0a994480de
boost-config 20cb5b4d1e7456b3d2a769884917011c84bf3510
boost-core 5b621ead1d346332e9fb85a7c3d9a427a42dd19e
boost-filesystem 9aa29307e54631cb86c92fa8c16027c326e3ee92
boost-function 5af81eef03a975beb952a35ec09a061f839fafaa
boost-integer 6b8d4d12a8277a3c683643397afa14a29e2de1cd
boost-move deec5e9edf50367896d76640d76a0cad2b46daa0
boost-predef 57c0543418892291c31f07874227c9a533abc3c7
boost-smart-ptr 383b9a35fd0bfb02b53c2e9418ab8d65a1425fcf
boost-spirit 9dbc119f2c3ebf80d7e15cb394186c0fc9cb78b6
boost-static-assert 9e3b351365925913118fbf9d59c082033cd3392b
boost-system 45258459330650d51073e376b4ee63c7daaf486a
boost-throw-exception 4d2d23bdb9e2ecb9531ea2c0c487af666626d37f
boost-type-index 1abd292c37cbbee24d96674326acee9bd15178c6
boost-type-traits 66409d9ca8e2e00de09f6d288d854ff5e8e31d58
boost-vcpkg-helpers 2d54b6d10f1dc434d4c1ffdf6ffecb250df51316
boost-winapi 91c0d52f9bf61898b9e6aaaebd7730bf4d8585bb
cmake 3.20.2
features core
portfile.cmake 901f7cfb8b6c96de575c242aad5e867b44f18d99
ports.cmake bd8d6584852d3c42c455b6794fc31eb6a4f0914a
post_build_checks 2
powershell 7.1.3
triplet x86-windows
triplet_abi 4c64db251cbf53c76a606595b52416ec991ab5bb-a1c0eabb0c5177b6a8fb97a58ae398880c47b352-d8c1982fc772c9b47c816273e96145953dc4d7ea
vcpkg.json 6ba5b6a653bc7a449b9f492c42652ef46949f0bd
vcpkg_from_git 99e83c6ffac2dd07afaf73d795988ca5dec2dc8b
vcpkg_from_github a9dd1453b8873c9702731c6c36e79fb0ab6ae486
