boost-assert 766d1e50d76fa15029f0896e98a39c94179edf90
boost-compatibility ff8b56dd5cce61d8f5ee06555d474ddea56be455
boost-config 4e68ac389780e9d308f59b8b3e5a761372d4861f
boost-core daa09d115e70677561076e79281fec7f704d5e15
boost-detail ccc54e03239bc3ce78c1ef0de5129004043e1c5b
boost-integer 975295b82f04c6406baeec0626d4715a659ae467
boost-static-assert d053941176d254d233fbbd542340c3adc6b284e2
boost-type-traits cea0c9f630695ba63fd59f965d3da18c61504b67
boost-vcpkg-helpers 80497f5cb284902827337afddfd8bd2c81f3ed9b
cmake 3.20.1
features core
portfile.cmake 4c84af38ef09b11c25c13b8f7b4afa6662d4445e
ports.cmake c969892a7210e71589dca21c1563c85b195a04bf
post_build_checks 2
powershell 7.1.3
triplet x86-windows
triplet_abi 4c64db251cbf53c76a606595b52416ec991ab5bb-a1c0eabb0c5177b6a8fb97a58ae398880c47b352-d8c1982fc772c9b47c816273e96145953dc4d7ea
vcpkg.json 7751c0799ae8531eb021d64fca13920f27ca00ae
vcpkg_from_git 99e83c6ffac2dd07afaf73d795988ca5dec2dc8b
vcpkg_from_github a9dd1453b8873c9702731c6c36e79fb0ab6ae486
